{
	"balancer": {"host":"127.0.0.1","port":8080},
	"services": ["calculate", "filesystem"],
	"workers": [
		{
			"host":"127.0.0.1",
			"port":4001,
			"services": ["calculate"]
		},
		{
			"host":"127.0.0.1",
			"port":4004,
			"services": ["calculate","filesystem"]
		},
		{
			"host":"127.0.0.1",
			"port":4002,
			"services": ["filesystem"]
		},
		{
			"host":"127.0.0.1",
			"port":4003,
			"services": ["calculate"]
		}
	]
}
